Resampling and Polling
…
pa.sample %>%
  count(likely.dem)

##   likely.dem     n
## 1          0 51611
## 2          1 46937

How does partisanship at the county-level vary?

pa.sample %>%
  group_by(fips.county) %>%
  summarize(DemPct = mean(likely.dem)) %>%
  arrange(-DemPct)

## # A tibble: 68 × 2
##    fips.county DemPct
##    <chr>        <dbl>
##  1 42101        0.775
##  2 42003        0.587
##  3 42069        0.578
##  4 42091        0.519
##  5 42077        0.514
##  6 42049        0.511
##  7 42045        0.496
##  8 42079        0.492
##  9 42007        0.480
## 10 <NA>         0.467
## # … with 58 more rows
…
