Lecture2_HelloWorld.utf8
…
ugds
Number of undergraduates

costt4a
Average cost of attendance (tuition-grants)

Looking at datasets

We can look at the first few rows and columns of df by typing in the data name.

df

## # A tibble: 2,546 x 20
##    unitid instnm   stabbr grad_debt_mdn control region preddeg openadmp adm_rate
##     <int> <chr>    <chr>          <int> <chr>   <chr>  <chr>      <int>    <dbl>
##  1 100654 Alabama AL             33375 Public  South Bachel        2    0.918
##  2 100663 Univers AL             22500 Public  South Bachel        2    0.737
##  3 100690 Amridge AL             27334 Private South Associ        1   NA    
##  4 100706 Univers AL             21607 Public  South Bachel        2    0.826
##  5 100724 Alabama AL             32000 Public  South Bachel        2    0.969
##  6 100751 The Uni AL             23250 Public  South Bachel        2    0.827
##  7 100760 Central AL             12500 Public  South Associ        1   NA    
##  8 100812 Athens  AL             19500 Public  South Bachel       NA   NA    
##  9 100830 Auburn  AL             24826 Public  South Bachel        2    0.904
## 10 100858 Auburn  AL             21281 Public  South Bachel        2    0.807
## #  with 2,536 more rows, and 11 more variables: ccbasic <int>, sat_avg <int>,
## #   md_earn_wne_p6 <int>, ugds <int>, costt4_a <int>, selective <dbl>,
## #   research_u <dbl>, mean_debt_uncond <dbl>, mean_debt_control <dbl>,
## #   mean_debt_control_degree <dbl>, mean_debt_control_degree_region <dbl>
…
! :not, as in != not equal to

& AND

| OR

Next, we can use filter to look at colleges with low admissions rates, say less than 10% ( or .1 in the proportion scale used in the dataset).

df%>%
  filter(adm_rate<.1)%>%
  select(instnm,adm_rate,sat_avg)%>%
  arrange(sat_avg,adm_rate)%>%print(n=20)

## # A tibble: 25 x 3
##    instnm                                      adm_rate sat_avg
##    <chr>                                          <dbl>   <int>
##  1 Colby College                                 0.0967    1456
##  2 Swarthmore College                            0.0893    1469
##  3 Pomona College                                0.074     1480
##  4 Dartmouth College                             0.0793    1500
##  5 Stanford University                           0.0434    1503
##  6 Northwestern University                       0.0905    1506
##  7 Columbia University in the City of New York   0.0545    1511
##  8 Brown University                              0.0707    1511
##  9 University of Pennsylvania                    0.0766    1511
## 10 Vanderbilt University                         0.0912    1515
## 11 Harvard University                            0.0464    1517
## 12 Princeton University                          0.0578    1517
## 13 Yale University                               0.0608    1517
## 14 Rice University                               0.0872    1520
## 15 Duke University                               0.076     1522
## 16 University of Chicago                         0.0617    1528
## 17 Massachusetts Institute of Technology         0.067     1547
## 18 California Institute of Technology            0.0642    1557
## 19 Saint Elizabeth College of Nursing            0           NA
## 20 Yeshivat Hechal Shemuel                       0           NA
## #  with 5 more rows

Now lets look at colleges with low admit rates, and order them by SAT scores (-sat_avg gives descending order).

df%>%
  filter(adm_rate<.1)%>%
  select(instnm,adm_rate,sat_avg)%>%
  arrange(-sat_avg)

## # A tibble: 25 x 3
##    instnm                                      adm_rate sat_avg
##    <chr>                                          <dbl>   <int>
##  1 California Institute of Technology            0.0642    1557
##  2 Massachusetts Institute of Technology         0.067     1547
##  3 University of Chicago                         0.0617    1528
##  4 Duke University                               0.076     1522
##  5 Rice University                               0.0872    1520
##  6 Yale University                               0.0608    1517
##  7 Harvard University                            0.0464    1517
##  8 Princeton University                          0.0578    1517
##  9 Vanderbilt University                         0.0912    1515
## 10 Columbia University in the City of New York   0.0545    1511
## #  with 15 more rows

And one last operation: all colleges that admit between 20 and 30 percent of students, looking at their SAT scores, earnings of attendees six years letter, and what state they are in, then arranging by state, and then SAT score.

df%>%
  filter(adm_rate>.2&adm_rate<.3)%>%
  select(instnm,sat_avg,grad_debt_mdn,stabbr)%>%
  arrange(stabbr,-sat_avg)%>%
  print(n=20)

## # A tibble: 37 x 4
##    instnm                                           sat_avg grad_debt_mdn stabbr
##    <chr>                                              <int>         <int> <chr> 
##  1 Heritage Christian University                         NA            NA AL    
##  2 University of California-Santa Barbara              1370         15000 CA    
##  3 California Polytechnic State University-San Lui    1342         19501 CA    
##  4 University of California-Irvine                     1306         15488 CA    
##  5 California Institute of the Arts                      NA         27000 CA    
##  6 University of Miami                                 1371         17125 FL    
##  7 Georgia Institute of Technology-Main Campus         1418         23000 GA    
##  8 Point University                                     986         26000 GA    
##  9 Grinnell College                                    1457         17500 IA    
## 10 St Luke's College                                     NA         17750 IA    
## 11 Purdue University Northwest                         1074         22250 IN    
## 12 Alice Lloyd College                                 1040         15838 KY    
## 13 Wellesley College                                   1452         11000 MA    
## 14 Boston College                                      1437         17500 MA    
## 15 Brandeis University                                 1434         26150 MA    
## 16 Babson College                                      1362         22985 MA    
## 17 Laboure College                                       NA         25229 MA    
## 18 Coppin State University                              903         24076 MD    
## 19 University of Michigan-Ann Arbor                    1448         17500 MI    
## 20 University of North Carolina at Chapel Hill         1402         15400 NC    
## #  with 17 more rows
…
