Lecture2_HelloWorld.utf8
…
md_earn_wne_p6
Average Earnings of Recent Graduates

ugds
Number of undergraduates

Looking at datasets

We can look at the first few rows and columns of df by typing in the data name.

df

## # A tibble: 2,555 x 15
##    unitid instnm   stabbr grad_debt_mdn control region preddeg openadmp adm_rate
##     <int> <chr>    <chr>          <dbl> <chr>   <chr>  <chr>      <int>    <dbl>
##  1 132657 Lynn Un FL             17556 Private Soutw Bachel        2    0.704
##  2 130217 Quineba CT                NA Public  New E Associ        1   NA    
##  3 132851 College FL             13140 Public  Soutw Associ        1   NA    
##  4 135364 Luther  GA             29875 Private Soutw Bachel        2    0.591
##  5 135391 State C FL             10413 Public  Soutw Associ        1   NA    
##  6 134097 Florida FL             19002 Public  Soutw Bachel        2    0.368
##  7 135717 Miami D FL              9500 Public  Soutw Associ        1   NA    
##  8 138947 Clark A GA             27000 Private Soutw Bachel        2    0.518
##  9 138187 Valenci FL              9208 Public  Soutw Associ        1   NA    
## 10 138354 The Uni FL             17250 Public  Soutw Bachel        2    0.424
## #  with 2,545 more rows, and 6 more variables: ccbasic <int>, sat_avg <dbl>,
## #   md_earn_wne_p6 <int>, ugds <int>, selective <dbl>, research_u <dbl>
…
! :not, as in != not equal to

& AND

| OR

Next, we can use filter to look at colleges with low admissions rates, say less than 10% ( or .1 in the proportion scale used in the dataset).

df%>%
  filter(adm_rate<.1)%>%
  select(instnm,adm_rate,sat_avg)%>%
  arrange(sat_avg,adm_rate)%>%print(n=20)

## # A tibble: 23 x 3
##    instnm                                      adm_rate sat_avg
##    <chr>                                          <dbl>   <dbl>
##  1 Claremont McKenna College                     0.0931    1446
##  2 Swarthmore College                            0.0949    1465
##  3 Pomona College                                0.0761    1468
##  4 Dartmouth College                             0.0874    1488
##  5 Brown University                              0.0767    1492
##  6 University of Pennsylvania                    0.0841    1492
##  7 Stanford University                           0.0436    1497
##  8 Princeton University                          0.0548    1503
##  9 Northwestern University                       0.0847    1508
## 10 Columbia University in the City of New York   0.0591    1512
## 11 Vanderbilt University                         0.0961    1514
## 12 Duke University                               0.0891    1516
## 13 Yale University                               0.0635    1517
## 14 Harvard University                            0.0473    1520
## 15 University of Chicago                         0.0726    1520
## 16 Massachusetts Institute of Technology         0.0674    1545
## 17 California Institute of Technology            0.0662    1566
## 18 Saint Elizabeth College of Nursing            0           NA
## 19 Saint Anthony College of Nursing              0           NA
## 20 Belanger School of Nursing                    0           NA
## #  with 3 more rows

Now lets look at colleges with low admit rates, and order them by SAT scores (-sat_avg gives descending order).

df%>%
  filter(adm_rate<.1)%>%
  select(instnm,adm_rate,sat_avg)%>%
  arrange(-sat_avg)

## # A tibble: 23 x 3
##    instnm                                      adm_rate sat_avg
##    <chr>                                          <dbl>   <dbl>
##  1 California Institute of Technology            0.0662    1566
##  2 Massachusetts Institute of Technology         0.0674    1545
##  3 Harvard University                            0.0473    1520
##  4 University of Chicago                         0.0726    1520
##  5 Yale University                               0.0635    1517
##  6 Duke University                               0.0891    1516
##  7 Vanderbilt University                         0.0961    1514
##  8 Columbia University in the City of New York   0.0591    1512
##  9 Northwestern University                       0.0847    1508
## 10 Princeton University                          0.0548    1503
## #  with 13 more rows

And one last operation: all colleges that admit between 20 and 30 percent of students, looking at their SAT scores, earnings of attendees six years letter, and what state they are in, then arranging by state, and then SAT score.

df%>%
  filter(adm_rate>.2&adm_rate<.3)%>%
  select(instnm,sat_avg,grad_debt_mdn,stabbr)%>%
  arrange(stabbr,-sat_avg)%>%
  print(n=20)

## # A tibble: 40 x 4
##    instnm                                        sat_avg grad_debt_mdn stabbr
##    <chr>                                           <dbl>         <dbl> <chr> 
##  1 Scripps College                                  1409         14000 CA    
##  2 University of California-Irvine                  1316         15488 CA    
##  3 Hope International University                    1022         24422 CA    
##  4 California Institute of the Arts                   NA         27000 CA    
##  5 California State University-Bakersfield            NA         16003 CA    
##  6 Georgia Institute of Technology-Main Campus      1465         23000 GA    
##  7 Savannah State University                        1251         31000 GA    
##  8 Grinnell College                                 1450         17500 IA    
##  9 Alice Lloyd College                              1054         15838 KY    
## 10 Boston College                                   1429         17500 MA    
## 11 Boston University                                1420         25000 MA    
## 12 Babson College                                   1367         22985 MA    
## 13 University of Michigan-Ann Arbor                 1434         17500 MI    
## 14 Grace Christian University                         NA         23080 MI    
## 15 University of North Carolina at Chapel Hill      1398         15400 NC    
## 16 Carolinas College of Health Sciences             1012         12525 NC    
## 17 Wake Forest University                             NA         19500 NC    
## 18 Yeshiva Gedolah Shaarei Shmuel                     NA            NA NJ    
## 19 New Mexico Institute of Mining and Technology    1264         19211 NM    
## 20 Hamilton College                                 1446         16500 NY    
## #  with 20 more rows
…
